{
  "name": "acl",
  "plural": "acls",
  "base": "ACL",
  "idInjection": true,
  "options": {
    "validateUpsert": true
  },
  "properties": {
    "id": {
      "type": "string",
      "id": true
    },
    "property": {
      "type": "string"
    },
    "accessType": {
      "type": "string"
    },
    "menu": {
      "type": "string"
    },
    "principalType": {
      "type": "string"
    },
    "principalId": {
      "type": "string"
    }
  },
  "validations": [],
  "relations": {},
  "acls": [],
  "methods": {}
}
