{
  "name": "District",
  "base": "PersistedModel",
  "idInjection": false,
  "options": {
    "validateUpsert": true,
    "mysql": {
      "schema": "lmss-fos",
      "table": "mst_district"
    },
    "mssql": {
      "schema": "dbo",
      "table": "mst_district"
    }
  },
  "properties": {
    "ID": {
      "type": "string",
      "id": true,
      "length": 7
    },
    "DISTRICT_NAME": {
      "type": "string",
      "length": 100
    },
    "FID_CITY_REGENCY": {
      "type": "string"
    },
    "LAST_UPDATE_BY": {
      "type": "string",
      "length": 20
    },
    "LAST_UPDATE_DATE": {
      "type": "date"
    },
    "POSTAL_CODE": {
      "type": "string"
    },
    "CODE_KECAMATAN_ZONASI": {
      "type": "number"
    },
    "fk_zonasi": {
      "type": "number"
    }
  },
  "validations": [],
  "relations": {
    "cityRegency": {
      "type": "belongsTo",
      "model": "CityRegency",
      "foreignKey": "FID_CITY_REGENCY"
    },
    "subDistricts": {
      "type": "hasMany",
      "model": "SubDistrict",
      "foreignKey": "FID_DISTRICT"
    }
  },
  "acls": [],
  "methods": {}
}
