{
  "name": "kota",
  "base": "PersistedModel",
  "idInjection": true,
  "options": {
    "validateUpsert": true
  },
  "properties": {
    "ID": {
      "type": "string"
    },
    "LAST_UPDATE_BY": {
      "type": "string"
    },
    "LAST_UPDATE_DATE": {
      "type": "date"
    },
    "FID_PROVINCE": {
      "type": "string"
    },
    "CITY_NAME": {
      "type": "string"
    },
    "PHONE_AREA_CODE": {
      "type": "string"
    }
  },
  "validations": [],
  "relations": {},
  "acls": [],
  "methods": {}
}
