{
  "name": "RoutePoint",
  "base": "PersistedModel",
  "idInjection": true,
  "options": {
    "validateUpsert": true,
    "mysql": {
      "table": "route_point"
    }
  },
  "properties": {
    "id": {
      "type": "number",
      "id": true
    },
    "code": {
      "type": "string"
    },
    "name": {
      "type": "string"
    },
    "fkRoute": {
      "type": "number"
    },
    "fkPoint": {
      "type": "number"
    },
    "no_urut": {
      "type": "number"
    },
    "fk_created": {
      "type": "string"
    },
    "fk_updated": {
      "type": "string"
    },
    "created_at": {
      "type": "date"
    },
    "updated_at": {
      "type": "date"
    }
  },
  "validations": [],
  "relations": {
    "Route": {
      "type": "belongsTo",
      "model": "Route",
      "foreignKey": "fkRoute"
    },
    "Point": {
      "type": "belongsTo",
      "model": "Point",
      "foreignKey": "fkPoint"
    }
  },
  "acls": [],
  "methods": {}
}
