{
  "name": "Transaction",
  "base": "PersistedModel",
  "idInjection": true,
  "options": {
    "validateUpsert": true,
    "mysql": {
      "table": "transaction"
    }
  },
  "properties": {
    "id": {
      "type": "number",
      "id": true,
      "generated": true
    },
    "code": {
      "type": "string"
    },
    "nama_barang": {
      "type": "string"
    },
    "stok": {
      "type": "number"
    },
    "jml_terjual": {
      "type": "number"
    },
    "tgl_transaksi": {
      "type": "date"
    },
    "jenis_barang": {
      "type": "string"
    },
    "fkJobsheet": {
      "type": "number"
    },
    "created_at": {
      "type": "date"
    },
    "updated_at": {
      "type": "date"
    }
  },
  "validations": [],
  "relations": {},
  "acls": [],
  "methods": {}
}
