{
  "restApiRoot": "/api",
  "host": "0.0.0.0",
  "apiserver": "https://localhost:3001",
  "apiserverpr": "https://localhost",
  "redis.host": "localhost",
  "redis.port": 6379,
  "redis.username": "scare",
  "redis.password": "SmartfrenDBA2021",
  "port": 3000,
  "https_port": 3001,
  "remoting": {
    "context": false,
    "rest": {
      "handleErrors": false,
      "normalizeHttpPath": false,
      "xml": false
    },
    "json": {
      "strict": false,
      "limit": "10mb"
    },
    "urlencoded": {
      "extended": true,
      "limit": "10mb"
    },
    "cors": false
  },
  "apiproxy": {
    "hostTestbed": "https://tykapi.smartfren.com/",
    "host": "http://10.16.9.18:8080/",
    "keyIDTestBed": "5d1309e3f6eb685f32793b027838691b441543879238ea04eaa664e0",
    "keyID": "5d1d334b00d0463f7934d511eb51617fa4314d19be0ba0ba9912b9d4",
    "secretKeyTestbed": "ZWJiYmUwZjMzMjQ0NDRkZGIwYTljM2ZlOTAwYWMxZTA=",
    "secretKey": "OTZkYmQyOGNmNDc3NDRjZmI4MTI5ZWU0NDFlNzFjZTg=",
    "params": {
      "newsubsc": {
        "customerType": "A",
        "docType": "",
        "docNumber": "",
        "docAddress": "",
        "deliveryMethodDtoList": [
          {
            "deliveryMethod": "EMAIL"
          }
        ],
        "fileFormat": "PDF",
        "country": "",
        "province": "",
        "deliveryCity": "",
        "street": "",
        "rt": "",
        "rw": "",
        "postalCode": "",
        "email": "",
        "gender": "",
        "motherMaidenName": "",
        "can": "",
        "birthPlace": "",
        "birthDay": "",
        "warrantAddress": "",
        "warrantNumber": "",
        "warrantName": "",
        "won": "",
        "userId": "",
        "orgId": "",
        "staffJobId": ""
      },
      "billpayment": {
        "mdn": "",
        "accountNumber": "3114650882",
        "sumReceived": "",
        "paymentMethod": "",
        "cardNumber": "",
        "expireDate": "",
        "bankCode": "",
        "comments": "test komen",
        "userId": "",
        "staffJobId": "",
        "orgId": ""
      },
      "newconn": {
        "mdn": "",
        "acctId": "",
        "iccid": "",
        "promotionId": "",
        "offerId": "",
        "dependProdList": [
          {
            "dependProdId": ""
          }
        ],
        "pricePlanList": [
          {
            "pricePlanId": "",
            "effType": "",
            "effDate": "",
            "expDate": ""
          }
        ],
        "defaultPricePlanId": "",
        "userId": "",
        "orgId": "",
        "staffJobId": ""
      },
      "newdeposit": {
        "mdn": "",
        "depositTypeId": "",
        "paymentMethod": "",
        "reason": "",
        "comments": "",
        "bankCode": "",
        "cardNumber": "",
        "expiredDate": "",
        "userId": "",
        "orgId": "",
        "staffJobId": ""
      },
      "newconnpay": {
        "orderNumber": "",
        "paymentMethod": "",
        "userId": "",
        "orgId": "",
        "staffJobId": ""
      },
      "service": {
        "mdn": "",
        "pricePlanCode": "",
        "paymentMethod": "",
        "cardNumber": "",
        "bankCode": "",
        "comments": "",
        "remarks": "",
        "serviceCode": "",
        "userId": "",
        "orgId": "",
        "staffJobId": ""
      },
      "servicebuy": {
        "mdn": "",
        "serviceCode": ""
      },
      "topup": {
        "fgCodeDtoList": [
          {
            "fgCode": "401245",
            "promotionID": "10000182",
            "promotionName": "Smart Voucher 10000182",
            "parPrice": "100000",
            "reciveCharge": "100000",
            "count": "1"
          }
        ],
        "mdn": "6288295294078",
        "orgId": "2",
        "staffJobID": "2667036",
        "userId": "996380",
        "paymentMethod": "2",
        "cardNumber": "31543565437654376",
        "bankCode": "33",
        "comments": "Submit via API"
      },
      "replace": {
        "mdn": "6288219876555",
        "destIccid": "8962091010000008688",
        "promotionId": "10000182",
        "contactNumber": "",
        "userId": "186021",
        "staffJobId": "2501215",
        "orgId": "208168",
        "email": "ekmailshift@mail.com",
        "remarks": "remark replacement RUIM",
        "paymentPlan": "1",
        "replacementType": "3",
        "actionFlag": "0",
        "isBalanceDeduct": "2"
      },
      "orderpayment": {
        "orderNumber": "2020092318159079",
        "paymentMethod": "1",
        "cardNumber": "12321",
        "expireDate": "12/24",
        "bankCode": "20983123",
        "comments": "API",
        "remarks": "Testing API",
        "userId": "175015",
        "orgId": "208177",
        "staffJobID": "2501243"
      },
      "ticket": {
        "mdn": "628872000008",
        "requestId": "0249",
        "subject": "Testing API Lagi",
        "remarks": "dari API",
        "contactPhone": "08881881818",
        "contactName": "John",
        "category": "ADMOT20AB",
        "priority": "10",
        "contactChannel": "1",
        "areaCode": "101",
        "creator": "REZAFADILLAH"
      },
      "dependprod": {
        "mdn": "",
        "dependProdId": "1828",
        "prodAttrList": [
          {
            "prodAttrID": "232019",
            "attrValue": "6"
          },
          {
            "prodAttrID": "232024",
            "attrValue": "2"
          }
        ],
        "action": "0",
        "effectiveType": "2",
        "effectiveDate": "",
        "expiryDate": "",
        "contactNo": "",
        "email": "",
        "remarks": "xxx",
        "paymentPlan": "",
        "sendSMS": "",
        "userId": "",
        "staffJobID": "",
        "orgId": ""
      }
    }
  },
  "mysf": {
    "hostTestbed": "https://custinfo.smartfren.com/api/index.php/",
    "host": "https://custinfo.smartfren.com/factory/api/index.php/",
    "params": {
      "handshake": {
        "id": 0,
        "jsonrpc": "2.0",
        "method": "HandshakeNew",
        "challenge": "1KuWTlL2X2nlQNxd1mWFwg",
        "params": [
          "IJC6288272112719",
          "iOS",
          "Apple",
          "iPhone",
          "13.3",
          "MySmartfren",
          "6.3.5",
          "indonesia",
          "480"
        ]
      },
      "auth": {
        "id": 0,
        "jsonrpc": "2.0",
        "method": "myLogin",
        "params": [
          "1602149211bd235f06b5896ac6c78e0135b1304831",
          "AD683G",
          "Hisense",
          "AD683G",
          "Android 4.0.4",
          "Customer Information",
          "6.3.5",
          "0",
          "480"
        ],
        "my_params": [
          "testsf1010@gmail.com",
          "Smartfren123"
        ]
      },
      "requestotp": {
        "id": 0,
        "jsonrpc": "2.0",
        "method": "requestOTP",
        "params": [
          "1617094042a8cfb779a2b3ed4befedc37ab3ce1fbf",
          "AD683G",
          "Hisense",
          "AD683G",
          "Android 4.0.4",
          "Customer Information",
          "4.1.4",
          "0",
          "480"
        ],
        "my_params": [
          "628881852478"
        ]
      },
      "authOTP": {
        "challenge": "challenge",
        "he_params": null,
        "iccid1": "89620921312018456966",
        "id": 1,
        "imei": "8631000383576666",
        "imeis": {
          "imei1": "863100038357087",
          "imei2": "863100039157080",
          "meid": "863100038357087"
        },
        "jsonrpc": "2.0",
        "method": "myLoginMDN",
        "mifi": 1,
        "mobile_network": 0,
        "objparams": {
          "appver": "v6.0.2",
          "signedflags": "1000000000"
        },
        "params": [
          "OTP66678008881852478",
          "Androoid",
          "Xiaomi 5.6",
          "Kucing Liar 4",
          "6.18",
          "MySmartfren",
          "6.18",
          "1",
          "320",
          "English",
          "2935",
          "NYC"
        ],
        "wifi": 1
      }
    },
    "secretKey": "OTZkYmQyOGNmNDc3NDRjZmI4MTI5ZWU0NDFlNzFjZTg="
  },
  "otp": {
    "host": "https://tykapi.smartfren.com/sfpas/registry/v1/",
    "hostTestbed": "https://10.16.5.162/factory/sfpas/registry/v1/",
    "host2": "https://10.16.5.94:8000/factory/sfpas/registry/v1/",
    "params": {},
    "secretKey": "OTZkYmQyOGNmNDc3NDRjZmI4MTI5ZWU0NDFlNzFjZTg="
  },
  "payagg": {
    "hostTestbed": "https://tykapi.smartfren.com/payment-aggr/gallery/payment/",
    "host": "http://10.16.9.18:8080/payment-aggr/gallery/",
    "keyIDTestbed": "5d1309e3f6eb685f32793b027838691b441543879238ea04eaa664e0",
    "keyID": "5d1d334b00d0463f7934d511eb51617fa4314d19be0ba0ba9912b9d4",
    "secretKeyTestbed": "ZWJiYmUwZjMzMjQ0NDRkZGIwYTljM2ZlOTAwYWMxZTA=",
    "secretKey": "OTZkYmQyOGNmNDc3NDRjZmI4MTI5ZWU0NDFlNzFjZTg=",
    "params": {
      "request": {
        "request": {
          "store": {
            "code": "GALLERY",
            "terminalId": "Vending",
            "confirmAction": "deeplink"
          },
          "order": {
            "title": "",
            "customerId": "",
            "totalPrice": {
              "currency": "IDR",
              "value": 0
            },
            "goods": [
              {
                "code": "VEN001",
                "price": {
                  "currency": "IDR",
                  "value": 0
                }
              }
            ]
          },
          "payment": {
            "method": "GOPAY",
            "reference": "",
            "account": {
              "id": ""
            },
            "resource": [
              {
                "currency": "IDR",
                "value": 0
              }
            ]
          }
        },
        "signature": "jo+TxiTtsX1E7hE2ulyb9V3QhchBn/jj4R30Tf/jx0NDIUJsk5FK1M3NA1jXneNB1xZ83FjvPXEQ7UYcG5c4/jrkrJafTMBMhz09PFQT0dKQ0Ja/Bmm0F6O00jwHY57Uj5VZfhvP7xU6kIYh9V3u/g5kD9fWloSx9lLK7qWo3zseIwk7ekZpRy1WdkjNKy6oizfC61Y/pcPH53LMYebgVv9x0CqiE1gpFGMmmBQX8nwKuEO3RUOLO0NCBZHvgdzxxsuSUD8R2Ls3BMQiijUgyVPZB2MOJuqQtF3t3CtWxLKYevi/rC+rrO/LKfg2CYXDxHNYnUMn1E14ye2PcYQGSlOvu3RYVASlOf9bD0S+Nk7DsUh4fuj1FxVv2ffk3B8hbtakrNWDD0GrMUbWEltOTakSLk5bXs3Odp/QRrOl8TLQ/Cucw1kmdF37W8bORa/IOy4LtxPTifDg48PVFdlmQRYpUzpopXt/vp/Bpbut++9SXAdFJRL9Y7aO+ZajxAAAlUkEF5/n1wos210z95iQiERQr12/DBNRFjqlQ1MXfqUyZQOyizl1fYdvTt7mc7ezaMj5iY5SXOY42r3VBK9yuzwm5kxRVheOM172N6DATXaTdRFo3voeCw0ORk0mjtmc3a9p91R7ZLknKq9v1mqGxYPG3UDAiwcv0MKZLrL3H4g="
      },
      "payment_confirm": {
        "request": {
          "store": {
            "code": "MYSF",
            "terminalId": "T001"
          },
          "payment": {
            "method": "GOPAY",
            "reference": "5f680c153d4eb",
            "account": {
              "id": "08872000008"
            }
          }
        }
      }
    }
  },
  "mFINO": {
    "host": "https://tykapi.smartfren.com/payment-aggr/mysf/",
    "hostTestbed": "http://10.16.9.18:8080/payment-aggr/mysf/",
    "keyID": "5d1309e3f6eb685f32793b027838691b441543879238ea04eaa664e0",
    "keyIDTestbed": "5d1d334b00d0463f7934d511eb51617fa4314d19be0ba0ba9912b9d4",
    "secretKey": "ZWJiYmUwZjMzMjQ0NDRkZGIwYTljM2ZlOTAwYWMxZTA=",
    "secretKeyTestbed": "OTZkYmQyOGNmNDc3NDRjZmI4MTI5ZWU0NDFlNzFjZTg=",
    "params": {
      "request": {
        "request": {
          "store": {
            "code": "MYSF",
            "terminalId": "T001",
            "confirmAction": "deeplink"
          },
          "order": {
            "title": "Topup Pulsa 08872000008",
            "customerId": "08872000008",
            "totalPrice": {
              "currency": "IDR",
              "value": 50000
            },
            "goods": [
              {
                "code": "EVOUCHER",
                "price": {
                  "currency": "IDR",
                  "value": 50000
                }
              }
            ]
          },
          "payment": {
            "method": "GOPAY",
            "reference": "5f680c153d4eb",
            "account": {
              "id": "08872000008"
            },
            "resource": [
              {
                "currency": "IDR",
                "value": 50000
              }
            ]
          }
        },
        "signature": "jo+TxiTtsX1E7hE2ulyb9V3QhchBn/jj4R30Tf/jx0NDIUJsk5FK1M3NA1jXneNB1xZ83FjvPXEQ7UYcG5c4/jrkrJafTMBMhz09PFQT0dKQ0Ja/Bmm0F6O00jwHY57Uj5VZfhvP7xU6kIYh9V3u/g5kD9fWloSx9lLK7qWo3zseIwk7ekZpRy1WdkjNKy6oizfC61Y/pcPH53LMYebgVv9x0CqiE1gpFGMmmBQX8nwKuEO3RUOLO0NCBZHvgdzxxsuSUD8R2Ls3BMQiijUgyVPZB2MOJuqQtF3t3CtWxLKYevi/rC+rrO/LKfg2CYXDxHNYnUMn1E14ye2PcYQGSlOvu3RYVASlOf9bD0S+Nk7DsUh4fuj1FxVv2ffk3B8hbtakrNWDD0GrMUbWEltOTakSLk5bXs3Odp/QRrOl8TLQ/Cucw1kmdF37W8bORa/IOy4LtxPTifDg48PVFdlmQRYpUzpopXt/vp/Bpbut++9SXAdFJRL9Y7aO+ZajxAAAlUkEF5/n1wos210z95iQiERQr12/DBNRFjqlQ1MXfqUyZQOyizl1fYdvTt7mc7ezaMj5iY5SXOY42r3VBK9yuzwm5kxRVheOM172N6DATXaTdRFo3voeCw0ORk0mjtmc3a9p91R7ZLknKq9v1mqGxYPG3UDAiwcv0MKZLrL3H4g="
      }
    }
  },
  "mqm": {
    "hostTestbed": "https://tykapi.smartfren.com/mgallery/api/",
    "host": "http://10.1.35.40:8051/api/",
    "keyID": "3f2a60c37e4f0c6489dfe3b0e4014b6d07a9258b19c0ba7e7229468b62bd318b",
    "key": "Sm@rtfren9006",
    "params": {
      "getToken": {
        "key": "3f2a60c37e4f0c6489dfe3b0e4014b6d07a9258b19c0ba7e7229468b62bd318b",
        "mdn": "08811213723",
        "timeStamp": "20190227",
        "os": "android",
        "is_token_only": true
      }
    }
  },
  "smartPOIN": {
    "host": "https://sp-api.smartfren.com/api/",
    "hostTestbed": "https://sp-stg-api.smartfren.com/api/",
    "username": "loyalty",
    "password": "e9#Qg!BaXxJ9$g2sBkYa"
  },
  "cmdn": {
    "auth": {
      "username": "gallery.vm",
      "password": "xI2GqemaFvCegNRdjwG6p0XM"
    },
    "authBasic": {
      "Authorization": "Basic Z2FsbGVyeS52bTp4STJHcWVtYUZ2Q2VnTlJkandHNnAwWE0="
    }
  },
  "tt": {
    "params": {
      "submit": {
        "mdn": "",
        "requestId": "",
        "subject": "Vending Manchine - ",
        "remarks": "",
        "contactPhone": "",
        "contactName": "",
        "category": "",
        "priority": "1",
        "contactChannel": "563",
        "areaCode": "101",
        "creator": ""
      }
    },
    "categories": {
      "prepaid": "PURAK01AB",
      "esim-activation": "PURPD01AA",
      "postpaid": "PURAK01AA",
      "card-replacement": "PURPD01AA",
      "data-package": "PURAK02AI",
      "international-roaming": "PURAK02AH",
      "change-mdn": "PURPD28",
      "reload-balance": "IFOIU01",
      "bill-payment": "IFOPT01",
      "login": "IFOPT01"
    }
  }
}
